{
    "KPlugin": {
        "Authors": [
            {
                "Email": "hein@kde.org",
                "Name": "Eike Hein",
                "Name[ar]": "Eike Hein",
                "Name[az]": "Eike Hein",
                "Name[be]": "Eike Hein",
                "Name[bg]": "Eike Hein",
                "Name[ca@valencia]": "Eike Hein",
                "Name[ca]": "Eike Hein",
                "Name[cs]": "Eike Hein",
                "Name[da]": "Eike Hein",
                "Name[de]": "Eike Hein",
                "Name[en_GB]": "Eike Hein",
                "Name[es]": "Eike Hein",
                "Name[eu]": "Eike Hein",
                "Name[fi]": "Eike Hein",
                "Name[fr]": "Eike Hein",
                "Name[hu]": "Eike Hein",
                "Name[ia]": "Eike Hein",
                "Name[id]": "Eike Hein",
                "Name[ie]": "Eike Hein",
                "Name[is]": "Eike Hein",
                "Name[it]": "Eike Hein",
                "Name[ja]": "Eike Hein",
                "Name[ka]": "აიკე ჰაინი",
                "Name[ko]": "Eike Hein",
                "Name[lt]": "Eike Hein",
                "Name[nl]": "Eike Hein",
                "Name[nn]": "Eike Hein",
                "Name[pa]": "ਇਕੀ ਹੀਇਨ",
                "Name[pl]": "Eike Hein",
                "Name[pt]": "Eike Hein",
                "Name[pt_BR]": "Eike Hein",
                "Name[ro]": "Eike Hein",
                "Name[ru]": "Eike Hein",
                "Name[sk]": "Eike Hein",
                "Name[sl]": "Eike Hein",
                "Name[sv]": "Eike Hein",
                "Name[ta]": "எய்கே ஹைன்",
                "Name[tr]": "Eike Hein",
                "Name[uk]": "Eike Hein",
                "Name[vi]": "Eike Hein",
                "Name[x-test]": "xxEike Heinxx",
                "Name[zh_CN]": "Eike Hein"
            }
        ],
        "BugReportUrl": "https://bugs.kde.org/enter_bug.cgi?product=plasmashell&component=Folder",
        "Category": "File System",
        "Description": "Display the contents of folders",
        "Description[ar]": "اعرض محتويات المجلّدات",
        "Description[az]": "Qovluqların tərkibinə baxış",
        "Description[be]": "Паказваць змесціва каталогаў",
        "Description[bg]": "Показване на съдържанието на папки",
        "Description[ca@valencia]": "Mostra el contingut de les carpetes",
        "Description[ca]": "Mostra el contingut de les carpetes",
        "Description[cs]": "Zobrazit obsah složek",
        "Description[da]": "Vis indholdet af mapper",
        "Description[de]": "Ordnerinhalte anzeigen",
        "Description[en_GB]": "Display the contents of folders",
        "Description[es]": "Mostrar el contenido de carpetas",
        "Description[eu]": "Karpeten edukia erakustea",
        "Description[fi]": "Näyttää kansion sisällön",
        "Description[fr]": "Afficher le contenu des dossiers",
        "Description[hu]": "Megjeleníti a mappák tartalmát",
        "Description[ia]": "Monstra le contentos de dossieres",
        "Description[id]": "Tampilan konten folder",
        "Description[ie]": "Monstrar li contenete de fólderes",
        "Description[is]": "Birting á innihaldi í möppum",
        "Description[it]": "Visualizza il contenuto delle cartelle",
        "Description[ja]": "フォルダーの内容を表示します",
        "Description[ka]": "საქაღალდეების შიგთავსის ჩვენება",
        "Description[ko]": "폴더의 내용 보기",
        "Description[lt]": "Rodyti aplankų turinį",
        "Description[nl]": "Toon de inhoud van mappen",
        "Description[nn]": "Vis innhaldet i mapper",
        "Description[pa]": "ਫੋਲਡਰਾਂ ਦੀ ਸਮੱਗਰੀ ਵੇਖਾਓ",
        "Description[pl]": "Wyświetla zawartość katalogów",
        "Description[pt]": "Mostrar o conteúdo das pastas",
        "Description[pt_BR]": "Mostra o conteúdo das pastas",
        "Description[ro]": "Afișează conținutul dosarelor",
        "Description[ru]": "Вывод содержимого папки",
        "Description[sk]": "Zobraziť obsah priečinkov",
        "Description[sl]": "Pokaži vsebino map",
        "Description[sv]": "Visa innehåll i kataloger",
        "Description[ta]": "அடைவுகளின் உள்ளடக்கத்தை காட்டும்",
        "Description[tr]": "Klasörlerin içeriğini görüntüle",
        "Description[uk]": "Показ вмісту тек",
        "Description[vi]": "Hiển thị nội dung các thư mục",
        "Description[x-test]": "xxDisplay the contents of foldersxx",
        "Description[zh_CN]": "显示文件夹的内容",
        "EnabledByDefault": true,
        "Icon": "org.kde.plasma.folder",
        "Id": "org.kde.plasma.folder",
        "License": "GPL-2.0+",
        "Name": "Folder View",
        "Name[ar]": "عرض المجلّد",
        "Name[az]": "Qovluqlara baxış",
        "Name[be]": "Каталогі",
        "Name[bg]": "Преглед на папка",
        "Name[ca@valencia]": "Vista de carpeta",
        "Name[ca]": "Vista de carpeta",
        "Name[cs]": "Pohled na složku",
        "Name[da]": "Mappevisning",
        "Name[de]": "Ordner-Ansicht",
        "Name[el]": "Προβολή φακέλου",
        "Name[en_GB]": "Folder View",
        "Name[es]": "Vista de carpetas",
        "Name[et]": "Kataloogivaade",
        "Name[eu]": "Karpeta ikuspegia",
        "Name[fi]": "Kansionäkymä",
        "Name[fr]": "Vue de dossier",
        "Name[gl]": "Vista de cartafoles",
        "Name[he]": "הצגת תיקיות",
        "Name[hu]": "Mappanézet",
        "Name[ia]": "Vista del Dossier",
        "Name[id]": "Tampilan Folder",
        "Name[ie]": "Vise de fólder",
        "Name[is]": "Möppusýn",
        "Name[it]": "Vista delle cartelle",
        "Name[ja]": "フォルダビュー",
        "Name[ka]": "საქაღალდის ხედი",
        "Name[ko]": "폴더 보기",
        "Name[lt]": "Aplankų rodinys",
        "Name[nl]": "Mapweergave",
        "Name[nn]": "Mappe­vising",
        "Name[pa]": "ਫੋਲਡਰ ਝਲਕ",
        "Name[pl]": "Widok katalogu",
        "Name[pt]": "Vista da Pasta",
        "Name[pt_BR]": "Visualização de pastas",
        "Name[ro]": "Vizualizare dosare",
        "Name[ru]": "Просмотр папки",
        "Name[se]": "Máhppačájeheapmi",
        "Name[sk]": "Pohľad priečinka",
        "Name[sl]": "Prikaz mape",
        "Name[sr@ijekavian]": "Приказ фасцикле",
        "Name[sr@ijekavianlatin]": "Prikaz fascikle",
        "Name[sr@latin]": "Prikaz fascikle",
        "Name[sr]": "Приказ фасцикле",
        "Name[sv]": "Katalogvy",
        "Name[ta]": "அடைவு பார்வை",
        "Name[tg]": "Намуди ҷузвадонҳо",
        "Name[tr]": "Klasör Görünümü",
        "Name[uk]": "Перегляд теки",
        "Name[vi]": "Xem thư mục",
        "Name[x-test]": "xxFolder Viewxx",
        "Name[zh_CN]": "文件夹视图",
        "Name[zh_TW]": "資料夾檢視",
        "ServiceTypes": [
            "Plasma/Applet",
            "Plasma/Containment"
        ],
        "Version": "3.0"
    },
    "X-Plasma-API": "declarativeappletscript",
    "X-Plasma-ContainmentType": "Desktop",
    "X-Plasma-DropMimeTypes": [
        "inode/directory"
    ],
    "X-Plasma-MainScript": "ui/main.qml",
    "X-Plasma-Provides": [
        "org.kde.plasma.filemanagement"
    ],
    "X-Plasma-RequiredExtensions": [
        "LaunchApp",
        "http",
        "localio",
        "networkio"
    ],
    "X-Plasma-RootPath": "org.kde.desktopcontainment"
}
